test_inputs/analog_signals_short.vcd
$date
    Sun Aug 03 23:19:35 2025
$end
$version
    Python Sinewave VCD Generator
$end
$timescale
    1ps
$end
$scope module top $end
$var integer 32 ! clk_cnt $end
$var real 64 " sine_1khz $end
$var reg 8 # sine_5khz $end
$var integer 8 $ sine_10khz $end
$var real 64 % sine_25khz $end
$var reg 16 & sine_50khz $end
$var integer 16 ' sine_100khz $end
$var wire 1 ( sine_250khz $end
$var real 64 ) sine_500khz $end
$var reg 8 * sine_1mhz $end
$var integer 16 + sine_2mhz $end
$var real 64 , triangle_10khz $end
$var real 64 - pulse_5khz $end
$var reg 8 . sine_4state_20khz $end
$var reg 8 / sine_e4m3_15khz $end
$var reg 8 0 sine_e5m2_30khz $end
$var reg 16 1 sine_bf16_12khz $end
$var reg 16 2 sine_fp16_35khz $end
$var event 1 3 event_sine_sweep $end
$upscope $end
$enddefinitions $end
#0
$dumpvars
b0 !
r0.5877852522924731 "
b11111001 #
b1011111 $
r1.190838939219355 %
b111110100 &
b1111111011011010 '
0(
r-2.377641290737884 )
b11010 *
b0 +
r-0.6000000000000005 ,
r0.1902113032590309 -
b11111001 .
b00110110 /
b00000000 0
b1011111111100001 1
b1011111011011000 2
$end
#1000
b1 !
r0.5877903354845628 "
r1.190743623711884 %
r-2.375202547751929 )
r-0.5999600000000003 ,
r0.1905958683034439 -
13
#2000
b10 !
r0.5877954186534478 "
r1.190648297329499 %
r-2.372740362475737 )
r-0.5999200000000009 ,
r0.1909729089493286 -
13
#3000
b11 !
r0.5878005017991275 "
r1.190552960074554 %
r-2.37025475921008 )
b11011 *
r-0.5998800000000006 ,
r0.191342410311766 -
b10010100 0
13
#4000
b100 !
r0.5878055849216017 "
r1.1904576119494 %
b111110011 &
b1111111011011001 '
r-2.367745762486861 )
r-0.5998400000000004 ,
r0.1917043578034754 -
b1011111011011001 2
13
#5000
b101 !
r0.5878106680208701 "
r1.19036225295639 %
r-2.365213397068863 )
r-0.5998000000000001 ,
r0.1920587371353886 -
13
#6000
b110 !
r0.5878157510969326 "
r1.190266883097877 %
r-2.362657687949512 )
b11100 *
b1001011 +
r-0.5997600000000007 ,
r0.1924055343172171 -
b10011000 0
13
#7000
b111 !
r0.5878208341497895 "
r1.190171502376215 %
r-2.360078660352624 )
r-0.5997200000000005 ,
r0.1927447356580019 -
13
#8000
b1000 !
r0.58782591717944 "
r1.190076110793756 %
b1111111011011000 '
r-2.357476339732161 )
r-0.5996800000000002 ,
r0.1930763277666547 -
13
#9000
b1001 !
r0.5878310001858837 "
r1.189980708352854 %
r-2.354850751771977 )
b11101 *
r-0.5996400000000008 ,
r0.1934002975524871 -
b10011010 0
13
#10000
b1010 !
r0.5878360831691212 "
r1.189885295055863 %
r-2.352201922385564 )
r-0.5996000000000006 ,
r0.1937166322257262 -
13
#11000
b1011 !
r0.5878411661291518 "
r1.189789870905137 %
r-2.3495298777158 )
r-0.5995600000000003 ,
r0.1940253192980212 -
13
#12000
b1100 !
r0.5878462490659753 "
r1.189694435903032 %
b111110010 &
b1111111011010111 '
r-2.346834644134685 )
b11110 *
b10010110 +
r-0.5995200000000009 ,
r0.1943263465829346 -
b10011100 0
b1011111011011010 2
13
#13000
b1101 !
r0.5878513319795915 "
r1.189598990051901 %
r-2.344116248243089 )
r-0.5994800000000007 ,
r0.1946197021964253 -
13
#14000
b1110 !
r0.5878564148700001 "
r1.1895035333541 %
r-2.341374716870481 )
r-0.5994400000000004 ,
r0.1949053745573153 -
b1011111111100010 1
13
#15000
b1111 !
r0.5878614977372014 "
r1.189408065811984 %
r-2.338610077074669 )
b11111 *
r-0.5994000000000002 ,
r0.1951833523877493 -
b10011101 0
13
#16000
b10000 !
r0.5878665805811947 "
r1.189312587427908 %
b111110001 &
b1111111011010110 '
r-2.33582235614153 )
r-0.5993600000000008 ,
r0.1954536247136387 -
13
#17000
b10001 !
r0.5878716634019798 "
r1.189217098204229 %
r-2.333011581584747 )
r-0.5993200000000005 ,
r0.1957161808650945 -
13
#18000
b10010 !
r0.5878767461995569 "
r1.189121598143303 %
r-2.330177781145528 )
b100000 *
b11100000 +
r-0.5992800000000003 ,
r0.1959710104768493 -
b10011110 0
13
#19000
b10011 !
r0.5878818289739256 "
r1.189026087247485 %
r-2.32732098279234 )
r-0.5992400000000009 ,
r0.196218103488667 -
13
#20000
b10100 !
r0.5878869117250856 "
r1.188930565519133 %
b1111111011010101 '
r-2.324441214720629 )
r-0.5992000000000006 ,
r0.1964574501457377 -
b1011111011011011 2
13
#21000
b10101 !
r0.5878919944530367 "
r1.188835032960603 %
r-2.321538505352543 )
b100001 *
r-0.5991600000000004 ,
r0.196689040999066 -
b10100000 0
13
#22000
b10110 !
r0.5878970771577787 "
r1.188739489574253 %
r-2.318612883336653 )
r-0.5991200000000001 ,
r0.1969128669058411 -
13
#23000
b10111 !
r0.5879021598393115 "
r1.188643935362439 %
r-2.315664377547667 )
r-0.5990800000000007 ,
r0.1971289190297996 -
13
#24000
b11000 !
r0.5879072424976348 "
r1.188548370327521 %
b111110000 &
b1111111011010100 '
r-2.312693017086146 )
b100010 *
b100101001 +
r-0.5990400000000005 ,
r0.1973371888415736 -
13
#25000
b11001 !
r0.5879123251327485 "
r1.188452794471855 %
r-2.309698831278217 )
r-0.5990000000000002 ,
r0.1975376681190277 -
13
#26000
b11010 !
r0.5879174077446523 "
r1.1883572077978 %
r-2.306681849675287 )
r-0.5989600000000008 ,
r0.1977303489475828 -
13
#27000
b11011 !
r0.5879224903333462 "
r1.188261610307715 %
r-2.303642102053746 )
b100011 *
r-0.5989200000000006 ,
r0.1979152237205302 -
b10100001 0
13
#28000
b11100 !
r0.5879275728988298 "
r1.188166002003958 %
b1111111011010011 '
r-2.300579618414676 )
r-0.5988800000000003 ,
r0.1980922851393303 -
b1011111011011100 2
13
#29000
b11101 !
r0.5879326554411028 "
r1.188070382888888 %
r-2.297494428983554 )
r-0.5988400000000009 ,
r0.1982615262139014 -
13
#30000
b11110 !
r0.5879377379601654 "
r1.187974752964865 %
r-2.294386564209953 )
b100100 *
b101110000 +
r-0.5988000000000007 ,
r0.1984229402628954 -
13
#31000
b11111 !
r0.5879428204560169 "
r1.187879112234248 %
r-2.291256054767245 )
r-0.5987600000000004 ,
r0.1985765209139627 -
13
#32000
b100000 !
r0.5879479029286574 "
r1.187783460699397 %
b111101111 &
b1111111011010010 '
r-2.288102931552294 )
r-0.5987200000000001 ,
r0.1987222621040017 -
13
#33000
b100001 !
r0.5879529853780867 "
r1.187687798362671 %
r-2.284927225685153 )
b100110 *
r-0.5986800000000008 ,
r0.1988601580793996 -
b10100010 0
13
#34000
b100010 !
r0.5879580678043046 "
r1.187592125226433 %
r-2.281728968508758 )
r-0.5986400000000005 ,
r0.1989902033962601 -
13
#35000
b100011 !
r0.5879631502073108 "
r1.187496441293042 %
r-2.278508191588613 )
r-0.5986000000000002 ,
r0.199112392920616 -
13
#36000
b100100 !
r0.5879682325871052 "
r1.187400746564858 %
b111101110 &
b1111111011010001 '
r-2.275264926712489 )
b100111 *
b110110101 +
r-0.5985600000000009 ,
r0.1992267218286345 -
b1011111011011101 2
13
#37000
b100101 !
r0.5879733149436874 "
r1.187305041044244 %
r-2.271999205890101 )
r-0.5985200000000006 ,
r0.1993331856068061 -
13
#38000
b100110 !
r0.5879783972770576 "
r1.18720932473356 %
r-2.268711061352793 )
r-0.5984800000000003 ,
r0.199431780052123 -
13
#39000
b100111 !
r0.5879834795872152 "
r1.187113597635169 %
r-2.265400525553225 )
b101000 *
r-0.598440000000001 ,
r0.199522501272245 -
b10100011 0
13
#40000
b101000 !
r0.5879885618741598 "
r1.187017859751432 %
b1111111011010000 '
r-2.262067631165049 )
r-0.5984000000000007 ,
r0.1996053456856544 -
13
#41000
b101001 !
r0.5879936441378919 "
r1.186922111084712 %
r-2.258712411082588 )
r-0.5983600000000004 ,
r0.1996803100217952 -
13
#42000
b101010 !
r0.587998726378411 "
r1.18682635163737 %
r-2.255334898420508 )
b101001 *
b111111000 +
r-0.5983200000000002 ,
r0.1997473913212033 -
b10100100 0
13
#43000
b101011 !
r0.5880038085957167 "
r1.186730581411771 %
r-2.251935126513496 )
r-0.5982800000000008 ,
r0.1998065869356251 -
13
#44000
b101100 !
r0.5880088907898089 "
r1.186634800410276 %
b111101101 &
b1111111011001111 '
r-2.248513128915927 )
r-0.5982400000000005 ,
r0.199857894528118 -
b1011111011011110 2
13
#45000
b101101 !
r0.5880139729606877 "
r1.18653900863525 %
r-2.245068939401539 )
b101010 *
r-0.5982000000000003 ,
r0.1999013120731465 -
13
#46000
b101110 !
r0.5880190551083522 "
r1.186443206089055 %
r-2.24160259196309 )
r-0.5981600000000009 ,
r0.1999368378566602 -
13
#47000
b101111 !
r0.5880241372328032 "
r1.186347392774055 %
r-2.23811412081203 )
r-0.5981200000000007 ,
r0.1999644704761616 -
13
#48000
b110000 !
r0.5880292193340395 "
r1.186251568692616 %
b111101100 &
b1111111011001110 '
r-2.234603560378159 )
b101011 *
b1000110111 +
r-0.5980800000000004 ,
r0.1999842088407631 -
13
#49000
b110001 !
r0.5880343014120615 "
r1.1861557338471 %
r-2.231070945309295 )
r-0.5980400000000001 ,
r0.1999960521712274 -
13
#50000
b110010 !
r0.5880393834668687 "
r1.186059888239873 %
r-2.22751631047092 )
r-0.5980000000000008 ,
r0.2000000000000002 -
13
#51000
b110011 !
r0.5880444654984611 "
r1.185964031873299 %
r-2.223939690945845 )
b101100 *
r-0.5979600000000005 ,
r0.1999960521712274 -
13
#52000
b110100 !
r0.5880495475068386 "
r1.185868164749745 %
b1111111011001101 '
r-2.220341122033862 )
r-0.5979200000000002 ,
r0.1999842088407631 -
b11111000 .
b1011111011011111 2
13
#53000
b110101 !
r0.5880546294920008 "
r1.185772286871574 %
r-2.216720639251391 )
r-0.5978800000000009 ,
r0.1999644704761616 -
13
#54000
b110110 !
r0.5880597114539472 "
r1.185676398241153 %
r-2.213078278331138 )
b101101 *
b1001110100 +
r-0.5978400000000006 ,
r0.1999368378566602 -
b10100101 0
13
#55000
b110111 !
r0.5880647933926784 "
r1.185580498860848 %
r-2.209414075221734 )
r-0.5978000000000003 ,
r0.1999013120731465 -
13
#56000
b111000 !
r0.5880698753081934 "
r1.185484588733025 %
b111101011 &
b1111111011001100 '
r-2.205728066087384 )
r-0.597760000000001 ,
r0.199857894528118 -
b1011111111100011 1
13
#57000
b111001 !
r0.5880749572004924 "
r1.185388667860051 %
r-2.202020287307509 )
b101111 *
r-0.5977200000000007 ,
r0.1998065869356251 -
13
#58000
b111010 !
r0.5880800390695753 "
r1.185292736244292 %
r-2.198290775476391 )
r-0.5976800000000004 ,
r0.1997473913212033 -
13
#59000
b111011 !
r0.5880851209154416 "
r1.185196793888114 %
r-2.194539567402805 )
r-0.5976400000000002 ,
r0.1996803100217952 -
13
#60000
b111100 !
r0.5880902027380912 "
r1.185100840793887 %
b1111111011001011 '
r-2.19076670010966 )
b110000 *
b1010101101 +
r-0.5976000000000008 ,
r0.1996053456856544 -
b00110101 /
b1011111011100000 2
13
#61000
b111101 !
r0.5880952845375238 "
r1.185004876963977 %
r-2.186972210833633 )
r-0.5975600000000005 ,
r0.199522501272245 -
13
#62000
b111110 !
r0.5881003663137396 "
r1.184908902400751 %
r-2.1831561370248 )
r-0.5975200000000003 ,
r0.199431780052123 -
13
#63000
b111111 !
r0.588105448066738 "
r1.184812917106579 %
r-2.179318516346272 )
b110001 *
r-0.5974800000000009 ,
r0.1993331856068061 -
b10100110 0
13
#64000
b1000000 !
r0.588110529796519 "
r1.184716921083828 %
b111101010 &
b1111111011001010 '
r-2.175459386673814 )
r-0.5974400000000006 ,
r0.1992267218286345 -
13
#65000
b1000001 !
r0.5881156115030823 "
r1.184620914334866 %
r-2.171578786095479 )
r-0.5974000000000004 ,
r0.199112392920616 -
13
#66000
b1000010 !
r0.5881206931864278 "
r1.184524896862064 %
r-2.167676752911226 )
b110010 *
b1011100010 +
r-0.5973600000000001 ,
r0.1989902033962601 -
13
#67000
b1000011 !
r0.5881257748465549 "
r1.184428868667789 %
r-2.163753325632547 )
r-0.5973200000000007 ,
r0.1988601580793996 -
13
#68000
b1000100 !
r0.588130856483464 "
r1.184332829754412 %
b111101001 &
b1111111011001001 '
r-2.159808542982089 )
r-0.5972800000000005 ,
r0.1987222621040017 -
b1011111011100001 2
13
#69000
b1000101 !
r0.5881359380971547 "
r1.184236780124302 %
r-2.15584244389326 )
b110011 *
r-0.5972400000000002 ,
r0.1985765209139627 -
13
#70000
b1000110 !
r0.5881410196876264 "
r1.184140719779828 %
r-2.15185506750986 )
r-0.5972000000000008 ,
r0.1984229402628954 -
13
#71000
b1000111 !
r0.5881461012548796 "
r1.184044648723362 %
r-2.147846453185681 )
r-0.5971600000000006 ,
r0.1982615262139014 -
13
#72000
b1001000 !
r0.5881511827989134 "
r1.183948566957274 %
b1111111011001000 '
r-2.143816640484131 )
b110100 *
b1100010010 +
r-0.5971200000000003 ,
r0.1980922851393303 -
13
#73000
b1001001 !
r0.5881562643197282 "
r1.183852474483934 %
r-2.139765669177833 )
r-0.5970800000000009 ,
r0.1979152237205302 -
13
#74000
b1001010 !
r0.5881613458173234 "
r1.183756371305713 %
r-2.135693579248239 )
r-0.5970400000000007 ,
r0.1977303489475828 -
13
#75000
b1001011 !
r0.5881664272916989 "
r1.183660257424982 %
r-2.131600410885231 )
b110110 *
r-0.5970000000000004 ,
r0.1975376681190277 -
b10100111 0
13
#76000
b1001100 !
r0.5881715087428545 "
r1.183564132844114 %
b111101000 &
b1111111011000111 '
r-2.12748620448673 )
r-0.5969600000000002 ,
r0.1973371888415736 -
b1011111011100010 2
13
#77000
b1001101 !
r0.58817659017079 "
r1.18346799756548 %
r-2.123351000658292 )
r-0.5969200000000008 ,
r0.1971289190297996 -
13
#78000
b1001110 !
r0.5881816715755053 "
r1.183371851591451 %
r-2.119194840212709 )
b110111 *
b1100111111 +
r-0.5968800000000005 ,
r0.1969128669058411 -
13
#79000
b1001111 !
r0.5881867529570002 "
r1.1832756949244 %
r-2.115017764169606 )
r-0.5968400000000003 ,
r0.196689040999066 -
13
#80000
b1010000 !
r0.5881918343152743 "
r1.183179527566701 %
b111100111 &
b1111111011000110 '
r-2.110819813755037 )
r-0.5968000000000009 ,
r0.1964574501457377 -
13
#81000
b1010001 !
r0.5881969156503275 "
r1.183083349520725 %
r-2.106601030401081 )
b111000 *
r-0.5967600000000006 ,
r0.196218103488667 -
13
#82000
b1010010 !
r0.5882019969621597 "
r1.182987160788845 %
r-2.102361455745423 )
r-0.5967200000000004 ,
r0.1959710104768493 -
13
#83000
b1010011 !
r0.5882070782507705 "
r1.182890961373436 %
r-2.098101131630955 )
r-0.5966800000000001 ,
r0.1957161808650945 -
13
#84000
b1010100 !
r0.5882121595161598 "
r1.18279475127687 %
b1111111011000101 '
r-2.093820100105355 )
b111001 *
b1101100110 +
r-0.5966400000000007 ,
r0.1954536247136387 -
b10101000 0
b1011111011100011 2
13
#85000
b1010101 !
r0.5882172407583273 "
r1.182698530501522 %
r-2.089518403420676 )
r-0.5966000000000005 ,
r0.1951833523877493 -
13
#86000
b1010110 !
r0.5882223219772733 "
r1.182602299049766 %
r-2.085196084032928 )
r-0.5965600000000002 ,
r0.1949053745573153 -
13
#87000
b1010111 !
r0.588227403172997 "
r1.182506056923975 %
r-2.080853184601659 )
b111010 *
r-0.5965200000000008 ,
r0.1946197021964253 -
13
#88000
b1011000 !
r0.5882324843454985 "
r1.182409804126526 %
b111100110 &
b1111111011000100 '
r-2.076489747989532 )
r-0.5964800000000006 ,
r0.194326346582935 -
13
#89000
b1011001 !
r0.5882375654947771 "
r1.182313540659792 %
r-2.072105817261904 )
r-0.5964400000000003 ,
r0.1940253192980212 -
13
#90000
b1011010 !
r0.5882426466208335 "
r1.18221726652615 %
r-2.067701435686405 )
b111100 *
b1110001001 +
r-0.5964000000000009 ,
r0.1937166322257262 -
13
#91000
b1011011 !
r0.5882477277236671 "
r1.182120981727974 %
r-2.063276646732499 )
r-0.5963600000000007 ,
r0.1934002975524871 -
13
#92000
b1011100 !
r0.5882528088032772 "
r1.182024686267639 %
b1111111011000011 '
r-2.058831494071069 )
r-0.5963200000000004 ,
r0.1930763277666547 -
b1011111011100100 2
13
#93000
b1011101 !
r0.5882578898596642 "
r1.181928380147523 %
r-2.054366021573976 )
b111101 *
r-0.5962800000000001 ,
r0.1927447356580019 -
13
#94000
b1011110 !
r0.5882629708928278 "
r1.181832063370002 %
r-2.049880273313631 )
r-0.5962400000000008 ,
r0.1924055343172171 -
13
#95000
b1011111 !
r0.5882680519027677 "
r1.181735735937451 %
r-2.045374293562559 )
r-0.5962000000000005 ,
r0.1920587371353886 -
13
#96000
b1100000 !
r0.5882731328894835 "
r1.181639397852248 %
b111100101 &
b1111111011000010 '
r-2.040848126792961 )
b111110 *
b1110100110 +
r-0.5961600000000002 ,
r0.1917043578034754 -
13
#97000
b1100001 !
r0.5882782138529752 "
r1.18154304911677 %
r-2.036301817676274 )
r-0.5961200000000009 ,
r0.191342410311766 -
13
#98000
b1100010 !
r0.5882832947932428 "
r1.181446689733394 %
r-2.031735411082734 )
r-0.5960800000000006 ,
r0.1909729089493286 -
13
#99000
b1100011 !
r0.5882883757102859 "
r1.181350319704498 %
r-2.027148952080934 )
b111111 *
r-0.5960400000000003 ,
r0.1905958683034439 -
13
#100000
b1100100 !
r0.588293456604104 "
r1.181253939032459 %
b111100100 &
b1111111011000001 '
r-2.022542485937369 )
r-0.596000000000001 ,
r0.1902113032590309 -
b1011111111100100 1
b1011111011100101 2
13
#101000
b1100101 !
r0.5882985374746976 "
r1.181157547719656 %
r-2.017916058116001 )
r-0.5959600000000007 ,
r0.1898192289980591 -
13
#102000
b1100110 !
r0.5883036183220658 "
r1.181061145768466 %
r-2.013269714277806 )
b1000000 *
b1110111111 +
r-0.5959200000000004 ,
r0.1894196609989489 -
13
#103000
b1100111 !
r0.588308699146209 "
r1.18096473318127 %
r-2.008603500280319 )
r-0.5958800000000002 ,
r0.1890126150359608 -
13
#104000
b1101000 !
r0.5883137799471263 "
r1.180868309960444 %
b1111111011000000 '
r-2.003917462177192 )
r-0.5958400000000008 ,
r0.1885981071785729 -
13
#105000
b1101001 !
r0.5883188607248182 "
r1.18077187610837 %
r-1.999211646217727 )
b1000001 *
r-0.5958000000000006 ,
r0.1881761537908453 -
b10101001 0
13
#106000
b1101010 !
r0.5883239414792842 "
r1.180675431627425 %
r-1.994486098846428 )
r-0.5957600000000003 ,
r0.187746771530775 -
13
#107000
b1101011 !
r0.588329022210524 "
r1.18057897651999 %
r-1.989740866702539 )
r-0.5957200000000009 ,
r0.1873099773496385 -
13
#108000
b1101100 !
r0.5883341029185378 "
r1.180482510788444 %
b111100011 &
b1111111010111111 '
r-1.984975996619588 )
b1000011 *
b1111010001 +
r-0.5956800000000007 ,
r0.1868657884913225 -
b1011111011100110 2
13
#109000
b1101101 !
r0.5883391836033247 "
r1.180386034435169 %
r-1.980191535624918 )
r-0.5956400000000004 ,
r0.1864142224916421 -
13
#110000
b1101110 !
r0.5883442642648851 "
r1.180289547462543 %
r-1.975387530939227 )
r-0.5956000000000001 ,
r0.1859552971776504 -
13
#111000
b1101111 !
r0.5883493449032184 "
r1.180193049872949 %
r-1.970564029976101 )
b1000100 *
r-0.5955600000000008 ,
r0.1854890306669326 -
13
#112000
b1110000 !
r0.5883544255183248 "
r1.180096541668767 %
b111100010 &
b1111111010111110 '
r-1.965721080341547 )
r-0.5955200000000005 ,
r0.1850154413668914 -
13
#113000
b1110001 !
r0.588359506110204 "
r1.180000022852377 %
r-1.960858729833525 )
r-0.5954800000000002 ,
r0.1845345479740228 -
13
#114000
b1110010 !
r0.5883645866788556 "
r1.179903493426163 %
r-1.955977026441471 )
b1000101 *
b1111011110 +
r-0.5954400000000009 ,
r0.1840463694731742 -
13
#115000
b1110011 !
r0.5883696672242793 "
r1.179806953392505 %
r-1.951076018345825 )
r-0.5954000000000006 ,
r0.1835509251367964 -
13
#116000
b1110100 !
r0.5883747477464754 "
r1.179710402753786 %
b1111111010111101 '
r-1.946155753917558 )
r-0.5953600000000003 ,
r0.1830482345241835 -
13
#117000
b1110101 !
r0.5883798282454431 "
r1.179613841512387 %
r-1.941216281717697 )
b1000110 *
r-0.595320000000001 ,
r0.1825383174807005 -
13
#118000
b1110110 !
r0.5883849087211828 "
r1.179517269670692 %
r-1.936257650496835 )
r-0.5952800000000007 ,
r0.1820211941369991 -
13
#119000
b1110111 !
r0.5883899891736937 "
r1.179420687231083 %
r-1.931279909194662 )
r-0.5952400000000004 ,
r0.1814968849082232 -
13
#120000
b1111000 !
r0.5883950696029761 "
r1.179324094195943 %
b111100001 &
b1111111010111100 '
r-1.926283106939474 )
b1000111 *
b1111100110 +
r-0.5952000000000002 ,
r0.1809654104932039 -
b1011111011100111 2
13
#121000
b1111001 !
r0.5884001500090295 "
r1.179227490567656 %
r-1.921267293047691 )
r-0.5951600000000008 ,
r0.1804267918736406 -
13
#122000
b1111010 !
r0.5884052303918539 "
r1.179130876348605 %
r-1.916232517023375 )
r-0.5951200000000005 ,
r0.1798810503132744 -
13
#123000
b1111011 !
r0.5884103107514487 "
r1.179034251541174 %
r-1.911178828557729 )
b1001001 *
r-0.5950800000000003 ,
r0.179328207357047 -
13
#124000
b1111100 !
r0.5884153910878143 "
r1.178937616147748 %
r-1.90610627752862 )
r-0.5950400000000009 ,
r0.178768284830253 -
13
#125000
b1111101 !
r0.58842047140095 "
r1.178840970170709 %
r-1.901014914000078 )
r-0.5950000000000006 ,
r0.1782013048376738 -
13
#126000
b1111110 !
r0.5884255516908561 "
r1.178744313612444 %
b1111111010111011 '
r-1.895904788221805 )
b1001010 *
b1111101000 +
r-0.5949600000000004 ,
r0.1776272897627091 -
b10101010 0
13
#127000
b1111111 !
r0.5884306319575319 "
r1.178647646475337 %
r-1.89077595062868 )
r-0.5949200000000001 ,
r0.177046262266491 -
13
#128000
b10000000 !
r0.5884357122009771 "
r1.178550968761774 %
b111100000 &
r-1.88562845184026 )
r-0.5948800000000007 ,
r0.1764582452869909 -
b1011111011101000 2
13
#129000
b10000001 !
r0.5884407924211921 "
r1.178454280474139 %
r-1.88046234266028 )
b1001011 *
r-0.5948400000000005 ,
r0.1758632620381113 -
13
#130000
b10000010 !
r0.5884458726181765 "
r1.178357581614818 %
b1111111010111010 '
r-1.875277674076149 )
r-0.5948000000000002 ,
r0.1752613360087727 -
13
#131000
b10000011 !
r0.5884509527919297 "
r1.178260872186198 %
r-1.870074497258456 )
r-0.5947600000000008 ,
r0.174652490961984 -
13
#132000
b10000100 !
r0.5884560329424517 "
r1.178164152190665 %
b111011111 &
r-1.864852863560456 )
b1001100 *
b1111100100 +
r-0.5947200000000006 ,
r0.1740367509339054 -
13
#133000
b10000101 !
r0.5884611130697428 "
r1.178067421630604 %
r-1.859612824517563 )
r-0.5946800000000003 ,
r0.1734141402328979 -
13
#134000
b10000110 !
r0.5884661931738022 "
r1.177970680508403 %
b1111111010111001 '
r-1.854354431846848 )
r-0.5946400000000009 ,
r0.1727846834385671 -
13
#135000
b10000111 !
r0.5884712732546298 "
r1.177873928826449 %
r-1.849077737446524 )
b1001101 *
r-0.5946000000000007 ,
r0.1721484054007889 -
13
#136000
b10001000 !
r0.5884763533122257 "
r1.177777166587129 %
r-1.843782793395435 )
r-0.5945600000000004 ,
r0.1715053312387305 -
b1011111011101001 2
13
#137000
b10001001 !
r0.5884814333465893 "
r1.17768039379283 %
r-1.83846965195254 )
r-0.5945200000000002 ,
r0.170855486339859 -
13
#138000
b10001010 !
r0.5884865133577206 "
r1.177583610445941 %
b1111111010111000 '
r-1.833138365556401 )
b1001111 *
b1111011011 +
r-0.5944800000000008 ,
r0.1701988963589383 -
13
#139000
b10001011 !
r0.5884915933456194 "
r1.177486816548849 %
r-1.827788986824662 )
r-0.5944400000000005 ,
r0.169535587217017 -
13
#140000
b10001100 !
r0.5884966733102854 "
r1.177390012103943 %
b111011110 &
r-1.822421568553529 )
r-0.5944000000000003 ,
r0.1688655851004031 -
13
#141000
b10001101 !
r0.5885017532517187 "
r1.177293197113611 %
r-1.817036163717257 )
b1010000 *
r-0.5943600000000009 ,
r0.1681889164596337 -
13
#142000
b10001110 !
r0.5885068331699186 "
r1.177196371580241 %
b1111111010110111 '
r-1.811632825467617 )
r-0.5943200000000006 ,
r0.1675056080084283 -
b1011111111100101 1
13
#143000
b10001111 !
r0.5885119130648855 "
r1.177099535506224 %
r-1.806211607133376 )
r-0.5942800000000004 ,
r0.1668156867226345 -
13
#144000
b10010000 !
r0.5885169929366187 "
r1.177002688893948 %
b111011101 &
r-1.800772562219767 )
b1010001 *
b1111001100 +
r-0.5942400000000001 ,
r0.1661191798391624 -
b1011111011101010 2
13
#145000
b10010001 !
r0.5885220727851181 "
r1.176905831745803 %
r-1.795315744407972 )
r-0.5942000000000007 ,
r0.1654161148549123 -
13
#146000
b10010010 !
r0.5885271526103839 "
r1.176808964064179 %
b1111111010110110 '
r-1.789841207554579 )
r-0.5941600000000005 ,
r0.1647065195256854 -
13
#147000
b10010011 !
r0.5885322324124154 "
r1.176712085851467 %
r-1.784349005691054 )
b1010010 *
r-0.5941200000000002 ,
r0.1639904218650905 -
b10101011 0
13
#148000
b10010100 !
r0.5885373121912125 "
r1.176615197110055 %
r-1.778839193023213 )
r-0.5940800000000008 ,
r0.1632678501434368 -
13
#149000
b10010101 !
r0.5885423919467749 "
r1.176518297842335 %
r-1.773311823930685 )
r-0.5940400000000006 ,
r0.1625388328866189 -
13
#150000
b10010110 !
r0.588547471679103 "
r1.176421388050698 %
b1111111010110101 '
r-1.767766952966369 )
b1010011 *
b1110110111 +
r-0.5940000000000003 ,
r0.1618033988749894 -
13
#151000
b10010111 !
r0.588552551388196 "
r1.176324467737535 %
r-1.762204634855904 )
r-0.5939600000000009 ,
r0.1610615771422244 -
13
#152000
b10011000 !
r0.5885576310740537 "
r1.176227536905238 %
b111011100 &
r-1.756624924497124 )
r-0.5939200000000007 ,
r0.1603133969741757 -
b1011111011101011 2
13
#153000
b10011001 !
r0.5885627107366762 "
r1.176130595556197 %
r-1.751027876959516 )
b1010100 *
r-0.5938800000000004 ,
r0.1595588879077141 -
13
#154000
b10011010 !
r0.5885677903760633 "
r1.176033643692806 %
b1111111010110100 '
r-1.745413547483682 )
r-0.5938400000000001 ,
r0.1587980797295669 -
13
#155000
b10011011 !
r0.5885728699922144 "
r1.175936681317455 %
r-1.739781991480786 )
r-0.5938000000000008 ,
r0.1580310024751381 -
13
#156000
b10011100 !
r0.58857794958513 "
r1.175839708432539 %
r-1.734133264532014 )
b1010101 *
b1110011101 +
r-0.5937600000000005 ,
r0.1572576864273239 -
13
#157000
b10011101 !
r0.5885830291548091 "
r1.175742725040449 %
r-1.728467422388017 )
r-0.5937200000000002 ,
r0.156478162115318 -
13
#158000
b10011110 !
r0.5885881087012521 "
r1.175645731143578 %
b1111111010110011 '
r-1.722784520968371 )
r-0.5936800000000009 ,
r0.1556924603134044 -
13
#159000
b10011111 !
r0.5885931882244584 "
r1.17554872674432 %
r-1.717084616361021 )
b1010111 *
r-0.5936400000000006 ,
r0.1549006120397469 -
13
#160000
b10100000 !
r0.5885982677244281 "
r1.175451711845067 %
b111011011 &
r-1.711367764821722 )
r-0.5936000000000003 ,
r0.154102648555158 -
13
#161000
b10100001 !
r0.5886033472011607 "
r1.175354686448215 %
r-1.705634022773492 )
r-0.593560000000001 ,
r0.15329860136187 -
13
#162000
b10100010 !
r0.5886084266546563 "
r1.175257650556156 %
r-1.699883446806048 )
b1011000 *
b1101111110 +
r-0.5935200000000007 ,
r0.1524885022022895 -
13
#163000
b10100011 !
r0.5886135060849145 "
r1.175160604171286 %
r-1.694116093675256 )
r-0.5934800000000005 ,
r0.1516723830577442 -
13
#164000
b10100100 !
r0.5886185854919352 "
r1.175063547295998 %
b111011010 &
b1111111010110010 '
r-1.688332020302562 )
r-0.5934400000000002 ,
r0.1508502761472208 -
b1011111011101100 2
13
#165000
b10100101 !
r0.5886236648757184 "
r1.174966479932687 %
r-1.682531283774434 )
b1011001 *
r-0.5934000000000008 ,
r0.1500222139260918 -
13
#166000
b10100110 !
r0.5886287442362634 "
r1.174869402083749 %
r-1.676713941341801 )
r-0.5933600000000006 ,
r0.1491882290848365 -
13
#167000
b10100111 !
r0.5886338235735704 "
r1.174772313751579 %
r-1.670880050419483 )
r-0.5933200000000003 ,
r0.148348354547748 -
13
#168000
b10101000 !
r0.5886389028876389 "
r1.174675214938572 %
b1111111010110001 '
r-1.665029668585629 )
b1011010 *
b1101011010 +
r-0.5932800000000009 ,
r0.147502623471635 -
b10101100 0
13
#169000
b10101001 !
r0.588643982178469 "
r1.174578105647124 %
r-1.659162853581147 )
r-0.5932400000000007 ,
r0.1466510692445122 -
13
#170000
b10101010 !
r0.5886490614460604 "
r1.174480985879631 %
r-1.653279663309131 )
r-0.5932000000000004 ,
r0.1457937254842823 -
13
#171000
b10101011 !
r0.5886541406904127 "
r1.17438385563849 %
r-1.647380155834292 )
b1011011 *
r-0.5931600000000001 ,
r0.1449306260374095 -
13
#172000
b10101100 !
r0.5886592199115261 "
r1.174286714926096 %
b111011001 &
b1111111010110000 '
r-1.641464389382391 )
r-0.5931200000000008 ,
r0.1440618049775813 -
b1011111011101101 2
13
#173000
b10101101 !
r0.5886642991094 "
r1.174189563744848 %
r-1.635532422339653 )
r-0.5930800000000005 ,
r0.1431872966043661 -
13
#174000
b10101110 !
r0.5886693782840344 "
r1.174092402097142 %
r-1.629584313252198 )
b1011100 *
b1100110000 +
r-0.5930400000000002 ,
r0.142307135441857 -
13
