test_inputs/apb_sim.vcd
$date
	Sat Jul 26 15:18:29 2025
$end
$version
	Icarus Verilog
$end
$timescale
	1ps
$end
$scope module apb_testbench $end
$var wire 1 ! pready $end
$var wire 32 " prdata [31:0] $end
$var reg 32 # paddr [31:0] $end
$var reg 1 $ pclk $end
$var reg 1 % penable $end
$var reg 1 & preset_n $end
$var reg 1 ' psel $end
$var reg 32 ( pwdata [31:0] $end
$var reg 1 ) pwrite $end
$scope module dut $end
$var wire 32 * paddr [31:0] $end
$var wire 1 $ pclk $end
$var wire 1 % penable $end
$var wire 1 ! pready $end
$var wire 1 & preset_n $end
$var wire 1 ' psel $end
$var wire 32 + pwdata [31:0] $end
$var wire 1 ) pwrite $end
$var reg 32 , prdata [31:0] $end
$var integer 32 - i [31:0] $end
$upscope $end
$scope task apb_read $end
$var reg 32 . addr [31:0] $end
$upscope $end
$scope task apb_write $end
$var reg 32 / addr [31:0] $end
$var reg 32 0 data [31:0] $end
$upscope $end
$upscope $end
$enddefinitions $end
$comment Show the parameter values. $end
$dumpall
$end
#0
$dumpvars
bx 0
bx /
bx .
b10000 -
b0 ,
b0 +
b0 *
0)
b0 (
0'
0&
0%
0$
b0 #
b0 "
1!
$end
#50000
b10000 -
1$
#100000
0$
#150000
b10000 -
1$
#200000
0$
#250000
b10000 -
1$
#300000
0$
#350000
b10000 -
1$
#400000
0$
#450000
1&
1$
#500000
0$
#550000
1$
#600000
0$
#650000
1$
#700000
0$
#750000
1$
#800000
0$
#850000
1$
#900000
0$
#950000
b11011110101011011011111011101111 0
b0 /
1$
#1000000
0$
#1050000
b11011110101011011011111011101111 (
b11011110101011011011111011101111 +
1)
1'
1$
#1100000
0$
#1150000
1%
1$
#1200000
0$
#1250000
0%
0'
b11001010111111101011101010111110 0
b100 /
1$
#1300000
0$
#1350000
b11001010111111101011101010111110 (
b11001010111111101011101010111110 +
b100 #
b100 *
1'
1$
#1400000
0$
#1450000
1%
1$
#1500000
0$
#1550000
0%
0'
b10010001101000101011001111000 0
b1000 /
1$
#1600000
0$
#1650000
b10010001101000101011001111000 (
b10010001101000101011001111000 +
b1000 #
b1000 *
1'
1$
#1700000
0$
#1750000
1%
1$
#1800000
0$
#1850000
0%
0'
b10000111011001010100001100100001 0
b1100 /
1$
#1900000
0$
#1950000
b10000111011001010100001100100001 (
b10000111011001010100001100100001 +
b1100 #
b1100 *
1'
1$
#2000000
0$
#2050000
1%
1$
#2100000
0$
#2150000
0%
0'
b0 .
1$
#2200000
0$
#2250000
b0 #
b0 *
0)
1'
1$
#2300000
0$
#2350000
1%
1$
#2400000
0$
#2450000
b11011110101011011011111011101111 "
b11011110101011011011111011101111 ,
0%
0'
b100 .
1$
#2500000
0$
#2550000
b100 #
b100 *
1'
1$
#2600000
0$
#2650000
1%
1$
#2700000
0$
#2750000
b11001010111111101011101010111110 "
b11001010111111101011101010111110 ,
0%
0'
b1000 .
1$
#2800000
0$
#2850000
b1000 #
b1000 *
1'
1$
#2900000
0$
#2950000
1%
1$
#3000000
0$
#3050000
b10010001101000101011001111000 "
b10010001101000101011001111000 ,
0%
0'
b1100 .
1$
#3100000
0$
#3150000
b1100 #
b1100 *
1'
1$
#3200000
0$
#3250000
1%
1$
#3300000
0$
#3350000
b10000111011001010100001100100001 "
b10000111011001010100001100100001 ,
0%
0'
1$
