test_inputs/pulse_test.vcd
$date
    Generated by WaveScout Test
$end
$version
    Test VCD for pulse visibility
$end
$comment
    1-bit signal with 10 pulses: 1ms period, 1ns duration
$end
$timescale
    1ps
$end
$scope module test_bench $end
    $var wire 1 ! pulse_signal $end
$upscope $end
$enddefinitions $end
$dumpvars
    0!
$end
#0
0!
#1000000000
1!
#1000001000
0!
#2000000000
1!
#2000001000
0!
#3000000000
1!
#3000001000
0!
#4000000000
1!
#4000001000
0!
#5000000000
1!
#5000001000
0!
#6000000000
1!
#6000001000
0!
#7000000000
1!
#7000001000
0!
#8000000000
1!
#8000001000
0!
#9000000000
1!
#9000001000
0!
#10000000000
1!
#10000001000
0!