test_inputs/staircase.vcd
$timescale
    1ns
$end
$scope module test_bench $end
    $var wire 64 ! stairs $end
$upscope $end
$enddefinitions $end
$dumpvars
    b0 !
$end
#1000
b1 !
#2000
b10 !
#3000
b11 !
#4000
b100 !
#5000
b101 !
#1000000
b1100100 !
#2000000
b11001000 !
#3000000
b100101100 !
#10000000
b1111101000 !
#20000000
b11111010000 !
