output.vcd
$date
   Generated by Python VCD Generator
$end
$version
   Python VCD Generator Script
$end
$timescale 1ns $end
$scope module top $end
$var wire 32 a sine1 $end
$var wire 32 b sine2 $end
$upscope $end
$enddefinitions $end

#0
$dumpvars
b00000000000000000000000000110010 a
b00000000000000000000000000011001 b
$end

#0
b00000000000000000000000000110010 a
b00000000000000000000000000011001 b
#1
b00000000000000000000000000111000 a
b00000000000000000000000000011011 b
#2
b00000000000000000000000000111110 a
b00000000000000000000000000011100 b
#3
b00000000000000000000000001000100 a
b00000000000000000000000000011110 b
#4
b00000000000000000000000001001010 a
b00000000000000000000000000011111 b
#5
b00000000000000000000000001001111 a
b00000000000000000000000000100001 b
#6
b00000000000000000000000001010100 a
b00000000000000000000000000100010 b
#7
b00000000000000000000000001011001 a
b00000000000000000000000000100100 b
#8
b00000000000000000000000001011100 a
b00000000000000000000000000100101 b
#9
b00000000000000000000000001011111 a
b00000000000000000000000000100110 b
#10
b00000000000000000000000001100010 a
b00000000000000000000000000101000 b
#11
b00000000000000000000000001100011 a
b00000000000000000000000000101001 b
#12
b00000000000000000000000001100100 a
b00000000000000000000000000101010 b
#13
b00000000000000000000000001100100 a
b00000000000000000000000000101011 b
#14
b00000000000000000000000001100011 a
b00000000000000000000000000101100 b
#15
b00000000000000000000000001100010 a
b00000000000000000000000000101101 b
#16
b00000000000000000000000001011111 a
b00000000000000000000000000101110 b
#17
b00000000000000000000000001011100 a
b00000000000000000000000000101111 b
#18
b00000000000000000000000001011001 a
b00000000000000000000000000110000 b
#19
b00000000000000000000000001010100 a
b00000000000000000000000000110000 b
#20
b00000000000000000000000001001111 a
b00000000000000000000000000110001 b
#21
b00000000000000000000000001001010 a
b00000000000000000000000000110001 b
#22
b00000000000000000000000001000100 a
b00000000000000000000000000110010 b
#23
b00000000000000000000000000111110 a
b00000000000000000000000000110010 b
#24
b00000000000000000000000000111000 a
b00000000000000000000000000110010 b
#25
b00000000000000000000000000110010 a
b00000000000000000000000000110010 b
#26
b00000000000000000000000000101100 a
b00000000000000000000000000110010 b
#27
b00000000000000000000000000100110 a
b00000000000000000000000000110010 b
#28
b00000000000000000000000000100000 a
b00000000000000000000000000110010 b
#29
b00000000000000000000000000011010 a
b00000000000000000000000000110001 b
#30
b00000000000000000000000000010101 a
b00000000000000000000000000110001 b
#31
b00000000000000000000000000010000 a
b00000000000000000000000000110000 b
#32
b00000000000000000000000000001011 a
b00000000000000000000000000110000 b
#33
b00000000000000000000000000001000 a
b00000000000000000000000000101111 b
#34
b00000000000000000000000000000101 a
b00000000000000000000000000101110 b
#35
b00000000000000000000000000000010 a
b00000000000000000000000000101101 b
#36
b00000000000000000000000000000001 a
b00000000000000000000000000101100 b
#37
b00000000000000000000000000000000 a
b00000000000000000000000000101011 b
#38
b00000000000000000000000000000000 a
b00000000000000000000000000101010 b
#39
b00000000000000000000000000000001 a
b00000000000000000000000000101001 b
#40
b00000000000000000000000000000010 a
b00000000000000000000000000101000 b
#41
b00000000000000000000000000000101 a
b00000000000000000000000000100110 b
#42
b00000000000000000000000000001000 a
b00000000000000000000000000100101 b
#43
b00000000000000000000000000001011 a
b00000000000000000000000000100100 b
#44
b00000000000000000000000000010000 a
b00000000000000000000000000100010 b
#45
b00000000000000000000000000010101 a
b00000000000000000000000000100001 b
#46
b00000000000000000000000000011010 a
b00000000000000000000000000011111 b
#47
b00000000000000000000000000100000 a
b00000000000000000000000000011110 b
#48
b00000000000000000000000000100110 a
b00000000000000000000000000011100 b
#49
b00000000000000000000000000101100 a
b00000000000000000000000000011011 b
#50
b00000000000000000000000000110010 a
b00000000000000000000000000011001 b
#51
b00000000000000000000000000111000 a
b00000000000000000000000000010111 b
#52
b00000000000000000000000000111110 a
b00000000000000000000000000010110 b
#53
b00000000000000000000000001000100 a
b00000000000000000000000000010100 b
#54
b00000000000000000000000001001010 a
b00000000000000000000000000010011 b
#55
b00000000000000000000000001001111 a
b00000000000000000000000000010001 b
#56
b00000000000000000000000001010100 a
b00000000000000000000000000010000 b
#57
b00000000000000000000000001011001 a
b00000000000000000000000000001110 b
#58
b00000000000000000000000001011100 a
b00000000000000000000000000001101 b
#59
b00000000000000000000000001011111 a
b00000000000000000000000000001100 b
#60
b00000000000000000000000001100010 a
b00000000000000000000000000001010 b
#61
b00000000000000000000000001100011 a
b00000000000000000000000000001001 b
#62
b00000000000000000000000001100100 a
b00000000000000000000000000001000 b
#63
b00000000000000000000000001100100 a
b00000000000000000000000000000111 b
#64
b00000000000000000000000001100011 a
b00000000000000000000000000000110 b
#65
b00000000000000000000000001100010 a
b00000000000000000000000000000101 b
#66
b00000000000000000000000001011111 a
b00000000000000000000000000000100 b
#67
b00000000000000000000000001011100 a
b00000000000000000000000000000011 b
#68
b00000000000000000000000001011001 a
b00000000000000000000000000000010 b
#69
b00000000000000000000000001010100 a
b00000000000000000000000000000010 b
#70
b00000000000000000000000001001111 a
b00000000000000000000000000000001 b
#71
b00000000000000000000000001001010 a
b00000000000000000000000000000001 b
#72
b00000000000000000000000001000100 a
b00000000000000000000000000000000 b
#73
b00000000000000000000000000111110 a
b00000000000000000000000000000000 b
#74
b00000000000000000000000000111000 a
b00000000000000000000000000000000 b
#75
b00000000000000000000000000110010 a
b00000000000000000000000000000000 b
#76
b00000000000000000000000000101100 a
b00000000000000000000000000000000 b
#77
b00000000000000000000000000100110 a
b00000000000000000000000000000000 b
#78
b00000000000000000000000000100000 a
b00000000000000000000000000000000 b
#79
b00000000000000000000000000011010 a
b00000000000000000000000000000001 b
#80
b00000000000000000000000000010101 a
b00000000000000000000000000000001 b
#81
b00000000000000000000000000010000 a
b00000000000000000000000000000010 b
#82
b00000000000000000000000000001011 a
b00000000000000000000000000000010 b
#83
b00000000000000000000000000001000 a
b00000000000000000000000000000011 b
#84
b00000000000000000000000000000101 a
b00000000000000000000000000000100 b
#85
b00000000000000000000000000000010 a
b00000000000000000000000000000101 b
#86
b00000000000000000000000000000001 a
b00000000000000000000000000000110 b
#87
b00000000000000000000000000000000 a
b00000000000000000000000000000111 b
#88
b00000000000000000000000000000000 a
b00000000000000000000000000001000 b
#89
b00000000000000000000000000000001 a
b00000000000000000000000000001001 b
#90
b00000000000000000000000000000010 a
b00000000000000000000000000001010 b
#91
b00000000000000000000000000000101 a
b00000000000000000000000000001100 b
#92
b00000000000000000000000000001000 a
b00000000000000000000000000001101 b
#93
b00000000000000000000000000001011 a
b00000000000000000000000000001110 b
#94
b00000000000000000000000000010000 a
b00000000000000000000000000010000 b
#95
b00000000000000000000000000010101 a
b00000000000000000000000000010001 b
#96
b00000000000000000000000000011010 a
b00000000000000000000000000010011 b
#97
b00000000000000000000000000100000 a
b00000000000000000000000000010100 b
#98
b00000000000000000000000000100110 a
b00000000000000000000000000010110 b
#99
b00000000000000000000000000101100 a
b00000000000000000000000000010111 b
#100
b00000000000000000000000000110010 a
b00000000000000000000000000011001 b
#101
b00000000000000000000000000111000 a
b00000000000000000000000000011011 b
#102
b00000000000000000000000000111110 a
b00000000000000000000000000011100 b
#103
b00000000000000000000000001000100 a
b00000000000000000000000000011110 b
#104
b00000000000000000000000001001010 a
b00000000000000000000000000011111 b
#105
b00000000000000000000000001001111 a
b00000000000000000000000000100001 b
#106
b00000000000000000000000001010100 a
b00000000000000000000000000100010 b
#107
b00000000000000000000000001011001 a
b00000000000000000000000000100100 b
#108
b00000000000000000000000001011100 a
b00000000000000000000000000100101 b
#109
b00000000000000000000000001011111 a
b00000000000000000000000000100110 b
#110
b00000000000000000000000001100010 a
b00000000000000000000000000101000 b
#111
b00000000000000000000000001100011 a
b00000000000000000000000000101001 b
#112
b00000000000000000000000001100100 a
b00000000000000000000000000101010 b
#113
b00000000000000000000000001100100 a
b00000000000000000000000000101011 b
#114
b00000000000000000000000001100011 a
b00000000000000000000000000101100 b
#115
b00000000000000000000000001100010 a
b00000000000000000000000000101101 b
#116
b00000000000000000000000001011111 a
b00000000000000000000000000101110 b
#117
b00000000000000000000000001011100 a
b00000000000000000000000000101111 b
#118
b00000000000000000000000001011001 a
b00000000000000000000000000110000 b
#119
b00000000000000000000000001010100 a
b00000000000000000000000000110000 b
#120
b00000000000000000000000001001111 a
b00000000000000000000000000110001 b
#121
b00000000000000000000000001001010 a
b00000000000000000000000000110001 b
#122
b00000000000000000000000001000100 a
b00000000000000000000000000110010 b
#123
b00000000000000000000000000111110 a
b00000000000000000000000000110010 b
#124
b00000000000000000000000000111000 a
b00000000000000000000000000110010 b
#125
b00000000000000000000000000110010 a
b00000000000000000000000000110010 b
#126
b00000000000000000000000000101100 a
b00000000000000000000000000110010 b
#127
b00000000000000000000000000100110 a
b00000000000000000000000000110010 b
#128
b00000000000000000000000000100000 a
b00000000000000000000000000110010 b
#129
b00000000000000000000000000011010 a
b00000000000000000000000000110001 b
#130
b00000000000000000000000000010101 a
b00000000000000000000000000110001 b
#131
b00000000000000000000000000010000 a
b00000000000000000000000000110000 b
#132
b00000000000000000000000000001011 a
b00000000000000000000000000110000 b
#133
b00000000000000000000000000001000 a
b00000000000000000000000000101111 b
#134
b00000000000000000000000000000101 a
b00000000000000000000000000101110 b
#135
b00000000000000000000000000000010 a
b00000000000000000000000000101101 b
#136
b00000000000000000000000000000001 a
b00000000000000000000000000101100 b
#137
b00000000000000000000000000000000 a
b00000000000000000000000000101011 b
#138
b00000000000000000000000000000000 a
b00000000000000000000000000101010 b
#139
b00000000000000000000000000000001 a
b00000000000000000000000000101001 b
#140
b00000000000000000000000000000010 a
b00000000000000000000000000101000 b
#141
b00000000000000000000000000000101 a
b00000000000000000000000000100110 b
#142
b00000000000000000000000000001000 a
b00000000000000000000000000100101 b
#143
b00000000000000000000000000001011 a
b00000000000000000000000000100100 b
#144
b00000000000000000000000000010000 a
b00000000000000000000000000100010 b
#145
b00000000000000000000000000010101 a
b00000000000000000000000000100001 b
#146
b00000000000000000000000000011010 a
b00000000000000000000000000011111 b
#147
b00000000000000000000000000100000 a
b00000000000000000000000000011110 b
#148
b00000000000000000000000000100110 a
b00000000000000000000000000011100 b
#149
b00000000000000000000000000101100 a
b00000000000000000000000000011011 b
#150
b00000000000000000000000000110010 a
b00000000000000000000000000011001 b
#151
b00000000000000000000000000111000 a
b00000000000000000000000000010111 b
#152
b00000000000000000000000000111110 a
b00000000000000000000000000010110 b
#153
b00000000000000000000000001000100 a
b00000000000000000000000000010100 b
#154
b00000000000000000000000001001010 a
b00000000000000000000000000010011 b
#155
b00000000000000000000000001001111 a
b00000000000000000000000000010001 b
#156
b00000000000000000000000001010100 a
b00000000000000000000000000010000 b
#157
b00000000000000000000000001011001 a
b00000000000000000000000000001110 b
#158
b00000000000000000000000001011100 a
b00000000000000000000000000001101 b
#159
b00000000000000000000000001011111 a
b00000000000000000000000000001100 b
#160
b00000000000000000000000001100010 a
b00000000000000000000000000001010 b
#161
b00000000000000000000000001100011 a
b00000000000000000000000000001001 b
#162
b00000000000000000000000001100100 a
b00000000000000000000000000001000 b
#163
b00000000000000000000000001100100 a
b00000000000000000000000000000111 b
#164
b00000000000000000000000001100011 a
b00000000000000000000000000000110 b
#165
b00000000000000000000000001100010 a
b00000000000000000000000000000101 b
#166
b00000000000000000000000001011111 a
b00000000000000000000000000000100 b
#167
b00000000000000000000000001011100 a
b00000000000000000000000000000011 b
#168
b00000000000000000000000001011001 a
b00000000000000000000000000000010 b
#169
b00000000000000000000000001010100 a
b00000000000000000000000000000010 b
#170
b00000000000000000000000001001111 a
b00000000000000000000000000000001 b
#171
b00000000000000000000000001001010 a
b00000000000000000000000000000001 b
#172
b00000000000000000000000001000100 a
b00000000000000000000000000000000 b
#173
b00000000000000000000000000111110 a
b00000000000000000000000000000000 b
#174
b00000000000000000000000000111000 a
b00000000000000000000000000000000 b
#175
b00000000000000000000000000110010 a
b00000000000000000000000000000000 b
#176
b00000000000000000000000000101100 a
b00000000000000000000000000000000 b
#177
b00000000000000000000000000100110 a
b00000000000000000000000000000000 b
#178
b00000000000000000000000000100000 a
b00000000000000000000000000000000 b
#179
b00000000000000000000000000011010 a
b00000000000000000000000000000001 b
#180
b00000000000000000000000000010101 a
b00000000000000000000000000000001 b
#181
b00000000000000000000000000010000 a
b00000000000000000000000000000010 b
#182
b00000000000000000000000000001011 a
b00000000000000000000000000000010 b
#183
b00000000000000000000000000001000 a
b00000000000000000000000000000011 b
#184
b00000000000000000000000000000101 a
b00000000000000000000000000000100 b
#185
b00000000000000000000000000000010 a
b00000000000000000000000000000101 b
#186
b00000000000000000000000000000001 a
b00000000000000000000000000000110 b
#187
b00000000000000000000000000000000 a
b00000000000000000000000000000111 b
#188
b00000000000000000000000000000000 a
b00000000000000000000000000001000 b
#189
b00000000000000000000000000000001 a
b00000000000000000000000000001001 b
#190
b00000000000000000000000000000010 a
b00000000000000000000000000001010 b
#191
b00000000000000000000000000000101 a
b00000000000000000000000000001100 b
#192
b00000000000000000000000000001000 a
b00000000000000000000000000001101 b
#193
b00000000000000000000000000001011 a
b00000000000000000000000000001110 b
#194
b00000000000000000000000000010000 a
b00000000000000000000000000010000 b
#195
b00000000000000000000000000010101 a
b00000000000000000000000000010001 b
#196
b00000000000000000000000000011010 a
b00000000000000000000000000010011 b
#197
b00000000000000000000000000100000 a
b00000000000000000000000000010100 b
#198
b00000000000000000000000000100110 a
b00000000000000000000000000010110 b
#199
b00000000000000000000000000101100 a
b00000000000000000000000000010111 b
#200
b00000000000000000000000000110010 a
b00000000000000000000000000011001 b
